<?xml version="1.0" encoding="utf-8"?>
<!-- Generator: Adobe Illustrator 26.2.1, SVG Export Plug-In . SVG Version: 6.00 Build 0)  -->
<svg version="1.1" id="Laag_1" xmlns="http://www.w3.org/2000/svg" xmlns:xlink="http://www.w3.org/1999/xlink" x="0px" y="0px"
	 viewBox="0 0 80.6 121.3" style="enable-background:new 0 0 80.6 121.3;" xml:space="preserve">
<style type="text/css">
	.st0{fill:#E63223;}
</style>
<g id="Laag_1_00000023243453939369364220000018026357735061560253_">
	<path id="Path_1918" class="st0" d="M11.3,111.1H7.1v9.8H0V89.3h13.1c7.6,0,10.5,3,10.5,9v3.9c0,3.9-1.4,6.6-4.6,7.9l7.6,10.8h-8.4
		L11.3,111.1z M16.5,99c0-2.4-0.9-3.3-3.8-3.3H7.1v9.3h5.6c3,0,3.8-1.1,3.8-3.5L16.5,99z"/>
	<path id="Path_1919" class="st0" d="M54.1,111.6c0,4.8-3.3,9.7-12.2,9.7s-12.2-4.8-12.2-9.7V98.5c0-4.8,3.3-9.7,12.2-9.7
		s12.2,4.8,12.2,9.7V111.6z M47,99.1c0-2.5-1.6-4-5.1-4s-5.1,1.5-5.1,4v12c0,2.5,1.6,4,5.1,4s5.1-1.6,5.1-4V99.1z"/>
	<path id="Path_1920" class="st0" d="M66.9,115h13.7v5.8H58.8V115l13.8-19.9H59.4v-5.8h21.1v5.8L66.9,115z"/>
	<path id="Path_1921" class="st0" d="M31,7.6L26.8,0h-7.3c0,0,0.1,9.7-3.5,14.6C12.9,18.8,4.6,29,0,34.6v6.6L25,37v27.5l-11.8-9.2
		L0,68.1v14.5h3.8V69.7l9.7-9.4l15.3,11.9V32.7L3.8,36.8v-0.8C8.6,30.2,16.1,20.7,19,16.9c2.6-3.5,3.7-8.6,4-12.7h1.8l4,7.1
		c1.9-0.2,7.3,0.1,13.1,6.4v-5C38.8,10,35,8.2,31,7.6"/>
	<path id="Path_1922" class="st0" d="M56.4,39c3.5,11.9,9.5,23,17.5,32.5c2,2.4,4.3,4.5,6.6,6.5V0H41.9v12.7
		C46.6,16.9,51.9,24.6,56.4,39"/>
	<path id="Path_1923" class="st0" d="M52.9,40.1c-3.5-11.3-7.4-18.1-11-22.3v64.8h38.6C75.6,79.1,61.2,67,52.9,40.1"/>
</g>
</svg>
