<?xml version="1.0" encoding="utf-8"?>
<!-- Generator: Adobe Illustrator 26.3.1, SVG Export Plug-In . SVG Version: 6.00 Build 0)  -->
<svg version="1.1"
	 id="svg8" xmlns:sodipodi="http://sodipodi.sourceforge.net/DTD/sodipodi-0.dtd" xmlns:svg="http://www.w3.org/2000/svg" xmlns:cc="http://creativecommons.org/ns#" xmlns:inkscape="http://www.inkscape.org/namespaces/inkscape" xmlns:rdf="http://www.w3.org/1999/02/22-rdf-syntax-ns#" xmlns:dc="http://purl.org/dc/elements/1.1/" inkscape:version="0.92.4 (5da689c313, 2019-01-14)" sodipodi:docname="A.svg"
	 xmlns="http://www.w3.org/2000/svg" xmlns:xlink="http://www.w3.org/1999/xlink" x="0px" y="0px" viewBox="0 0 1000 484.9"
	 style="enable-background:new 0 0 1000 484.9;" xml:space="preserve">
<style type="text/css">
	.st0{fill:#6FBDD2;}
	.st1{fill:#064465;}
	.st2{fill:#D8D71E;}
</style>
<sodipodi:namedview  bordercolor="#666666" borderopacity="1.0" fit-margin-bottom="0" fit-margin-left="0" fit-margin-right="0" fit-margin-top="0" id="base" inkscape:current-layer="layer1" inkscape:cx="432.61711" inkscape:cy="81.227155" inkscape:document-units="px" inkscape:pageopacity="0.0" inkscape:pageshadow="2" inkscape:window-height="1017" inkscape:window-maximized="1" inkscape:window-width="1920" inkscape:window-x="1912" inkscape:window-y="-8" inkscape:zoom="0.7" pagecolor="#ffffff" showgrid="false" units="px">
	</sodipodi:namedview>
<g id="g1288">
	<g id="g1294" transform="translate(102.315,100.2382)">
		<path id="path1296" inkscape:connector-curvature="0" class="st0" d="M383.3,4.6H482v128.2c0,25.1-5.4,46-16,62.2
			c-16.5,25.2-44.3,38-82.7,38h0V4.6z"/>
	</g>
	<g id="g1298" transform="translate(51.1072,53.0264)">
		<path id="path1300" inkscape:connector-curvature="0" class="st1" d="M92.3,367.3c0-28.6-7.9-42.9-23.6-42.9h-9.5V411h7.7
			c8.7,0,15.1-3.6,19.3-10.9C90.2,392.8,92.3,381.9,92.3,367.3 M116.7,366.6c0,21.1-4.3,37.3-12.9,48.5c-8.6,11.2-21,16.8-37.2,16.8
			H35.3v-128h34.2c14.9,0,26.5,5.5,34.8,16.5C112.6,331.3,116.7,346.8,116.7,366.6"/>
	</g>
	<g id="g1302" transform="translate(67.6022,43.3702)">
		<path id="path1304" inkscape:connector-curvature="0" class="st1" d="M186,441.5h-57.7v-128H186v20.6h-33.9v30.5h31.4v20.7h-31.4
			v35.5H186V441.5z"/>
	</g>
	<g id="g1306" transform="translate(108.0737,43.3702)">
		<path id="path1308" inkscape:connector-curvature="0" class="st1" d="M416,441.5h-23.8v-56.1h-31.4v56.1h-23.8v-128h23.8v50.9
			h31.4v-50.9H416V441.5z"/>
	</g>
	<g id="g1310" transform="translate(122.1002,43.3702)">
		<path id="path1312" inkscape:connector-curvature="0" class="st1" d="M495.7,441.5H438v-128h23.7h34v20.6h-33.9v30.5h31.4v20.7
			h-31.4v35.5h33.9V441.5z"/>
	</g>
	<g id="g1314" transform="translate(146.1411,53.0264)">
		<path id="path1316" inkscape:connector-curvature="0" class="st1" d="M632.3,367.3c0-28.6-7.9-42.9-23.6-42.9h-9.5V411h7.7
			c8.7,0,15.1-3.6,19.3-10.9C630.3,392.8,632.3,381.9,632.3,367.3 M656.8,366.6c0,21.1-4.3,37.3-12.9,48.5
			c-8.6,11.2-21,16.8-37.2,16.8h-31.3v-128h34.2c14.9,0,26.5,5.5,34.8,16.5C652.6,331.3,656.8,346.8,656.8,366.6"/>
	</g>
	<g id="g1318" transform="translate(162.8148,43.3702)">
		<path id="path1320" inkscape:connector-curvature="0" class="st1" d="M727.1,441.5h-57.7v-128h57.7v20.6h-33.9v30.5h31.4v20.7
			h-31.4v35.5h33.9V441.5z"/>
	</g>
	<g id="g1322" transform="translate(171.1817,53.8904)">
		<path id="path1324" inkscape:connector-curvature="0" class="st1" d="M774.6,360.7h6.1c5.6,0,9.6-1.6,12.1-4.8
			c2.5-3.2,3.7-7.9,3.7-14.2c0-6.5-1.3-11.2-3.9-14c-2.6-2.8-6.6-4.2-12-4.2h-6V360.7z M774.6,381.2V431h-23.8V303H782
			c13.2,0,22.9,3.1,29.2,9.4c6.3,6.2,9.4,15.8,9.4,28.6c0,16.2-5.5,27.5-16.4,33.9l24.6,56.1h-25.5l-20.2-49.8H774.6z"/>
	</g>
	<g id="g1326" transform="translate(31.3041,71.832)">
		<path id="path1328" inkscape:connector-curvature="0" class="st0" d="M-20.3,222.8c0,2.5,0.6,4.4,1.9,5.7c1.3,1.3,3.1,2,5.5,2
			c4.8,0,7.2-2.6,7.2-7.7c0-2.6-0.6-4.5-1.8-5.9c-1.2-1.4-3-2.1-5.5-2.1c-2.4,0-4.2,0.7-5.5,2.1C-19.6,218.2-20.3,220.2-20.3,222.8
			 M-23.8,255.5c0,1.8,0.8,3.2,2.4,4.1c1.6,1,3.9,1.5,6.8,1.5c4.5,0,7.9-0.6,10.2-2c2.2-1.3,3.3-3,3.3-5.2c0-1.7-0.6-2.9-1.8-3.6
			c-1.2-0.7-3.5-1.1-6.8-1.1H-16c-2.4,0-4.3,0.6-5.7,1.7C-23.1,252.1-23.8,253.6-23.8,255.5 M7,210.1v4.6l-6.7,1.2
			c0.6,0.8,1.1,1.8,1.5,3.1c0.4,1.2,0.6,2.5,0.6,3.8c0,4-1.4,7.2-4.2,9.6c-2.8,2.3-6.6,3.5-11.5,3.5c-1.2,0-2.4-0.1-3.4-0.3
			c-1.8,1.1-2.7,2.4-2.7,3.9c0,0.9,0.4,1.6,1.3,2c0.8,0.4,2.4,0.7,4.6,0.7h6.8c4.3,0,7.6,0.9,9.9,2.8c2.2,1.9,3.4,4.5,3.4,8
			c0,4.5-1.8,7.9-5.5,10.3c-3.7,2.4-9,3.6-15.9,3.6c-5.4,0-9.4-0.9-12.2-2.8c-2.8-1.9-4.2-4.6-4.2-8.1c0-2.4,0.8-4.4,2.3-6.1
			c1.5-1.6,3.7-2.8,6.4-3.4c-1.1-0.5-2-1.2-2.8-2.3c-0.7-1-1.1-2.2-1.1-3.3c0-1.5,0.4-2.7,1.2-3.7c0.8-1,2.1-2,3.7-3
			c-2-0.9-3.7-2.3-5-4.3c-1.3-2-1.9-4.3-1.9-6.9c0-4.3,1.3-7.6,4-9.9c2.7-2.3,6.5-3.5,11.5-3.5c1.1,0,2.3,0.1,3.5,0.2
			s2.1,0.3,2.8,0.5H7z"/>
	</g>
	<g id="g1330" transform="translate(38.8126,72.8949)">
		<path id="path1332" inkscape:connector-curvature="0" class="st0" d="M22.4,214.7c-2.7,0-4.8,0.8-6.4,2.5
			c-1.6,1.7-2.6,4.1-2.9,7.4H31c0-3.2-0.8-5.7-2.3-7.4C27.1,215.5,25.1,214.7,22.4,214.7 M23.9,249c-6.1,0-10.9-1.8-14.3-5.3
			c-3.4-3.6-5.2-8.5-5.2-14.7c0-6.4,1.6-11.5,4.8-15.1c3.2-3.7,7.6-5.5,13.2-5.5c5.2,0,9.3,1.6,12.3,4.7c3,3.1,4.5,7.5,4.5,13v4.5
			H13c0.1,3.8,1.1,6.7,3.1,8.8c1.9,2,4.7,3.1,8.2,3.1c2.3,0,4.5-0.2,6.5-0.7c2-0.4,4.1-1.2,6.4-2.2v6.8c-2,1-4.1,1.7-6.2,2.1
			C29,248.8,26.6,249,23.9,249"/>
	</g>
	<g id="g1334" transform="translate(47.6975,67.8565)">
		<path id="path1336" inkscape:connector-curvature="0" class="st0" d="M72.9,253.4h-8.4v-24.2c0-3-0.6-5.2-1.7-6.7
			c-1.1-1.5-2.9-2.2-5.3-2.2c-3.2,0-5.6,1-7.1,3.1c-1.5,2.1-2.3,5.6-2.3,10.5v19.6h-8.3v-39.3h6.5l1.2,5.2h0.4
			c1.1-1.9,2.7-3.3,4.7-4.3c2.1-1,4.4-1.5,6.8-1.5c6,0,10,2.1,12,6.2h0.6c1.2-1.9,2.8-3.5,4.9-4.5c2.1-1.1,4.5-1.6,7.2-1.6
			c4.7,0,8.1,1.2,10.2,3.5c2.1,2.4,3.2,6,3.2,10.8v25.6h-8.3v-24.2c0-3-0.6-5.2-1.7-6.7c-1.1-1.5-2.9-2.2-5.3-2.2
			c-3.2,0-5.6,1-7.1,3c-1.5,2-2.3,5.1-2.3,9.3V253.4z"/>
	</g>
	<g id="g1338" transform="translate(55.4878,72.8949)">
		<path id="path1340" inkscape:connector-curvature="0" class="st0" d="M117.2,214.7c-2.7,0-4.8,0.8-6.4,2.5
			c-1.6,1.7-2.6,4.1-2.9,7.4h17.8c0-3.2-0.8-5.7-2.3-7.4C121.9,215.5,119.8,214.7,117.2,214.7 M118.7,249c-6.1,0-10.9-1.8-14.3-5.3
			c-3.4-3.6-5.2-8.5-5.2-14.7c0-6.4,1.6-11.5,4.8-15.1c3.2-3.7,7.6-5.5,13.2-5.5c5.2,0,9.3,1.6,12.3,4.7s4.5,7.5,4.5,13v4.5h-26.2
			c0.1,3.8,1.1,6.7,3.1,8.8c1.9,2,4.7,3.1,8.2,3.1c2.3,0,4.5-0.2,6.5-0.7c2-0.4,4.1-1.2,6.4-2.2v6.8c-2,1-4.1,1.7-6.2,2.1
			C123.8,248.8,121.4,249,118.7,249"/>
	</g>
	<g id="g1342" transform="translate(61.7585,72.8949)">
		<path id="path1344" inkscape:connector-curvature="0" class="st0" d="M152.8,214.7c-2.7,0-4.8,0.8-6.4,2.5
			c-1.6,1.7-2.6,4.1-2.9,7.4h17.8c0-3.2-0.8-5.7-2.3-7.4C157.5,215.5,155.5,214.7,152.8,214.7 M154.3,249c-6.1,0-10.9-1.8-14.3-5.3
			c-3.4-3.6-5.2-8.5-5.2-14.7c0-6.4,1.6-11.5,4.8-15.1c3.2-3.7,7.6-5.5,13.2-5.5c5.2,0,9.3,1.6,12.3,4.7s4.5,7.5,4.5,13v4.5h-26.2
			c0.1,3.8,1.1,6.7,3.1,8.8c1.9,2,4.7,3.1,8.2,3.1c2.3,0,4.5-0.2,6.5-0.7c2-0.4,4.1-1.2,6.4-2.2v6.8c-2,1-4.1,1.7-6.2,2.1
			S157,249,154.3,249"/>
	</g>
	<g id="g1346" transform="translate(70.8616,67.8565)">
		<path id="path1348" inkscape:connector-curvature="0" class="st0" d="M204.5,253.4h-8.4v-24.2c0-3-0.6-5.3-1.8-6.8
			c-1.2-1.5-3.2-2.2-5.8-2.2c-3.5,0-6.1,1-7.7,3.1c-1.6,2.1-2.5,5.6-2.5,10.5v19.6H170v-39.3h6.5l1.2,5.2h0.4c1.2-1.9,2.9-3.3,5-4.3
			c2.2-1,4.6-1.5,7.2-1.5c9.4,0,14.1,4.8,14.1,14.4V253.4z"/>
	</g>
	<g id="g1350" transform="translate(74.7885,68.7601)">
		<path id="path1352" inkscape:connector-curvature="0" class="st0" d="M226.9,246.4c2,0,4.1-0.3,6.1-1v6.3c-0.9,0.4-2.1,0.7-3.6,1
			c-1.5,0.3-3,0.4-4.5,0.4c-7.9,0-11.9-4.2-11.9-12.5v-21.2h-5.4v-3.7l5.8-3.1l2.8-8.3h5.2v8.7h11.2v6.3h-11.2v21
			c0,2,0.5,3.5,1.5,4.5C223.9,245.9,225.2,246.4,226.9,246.4"/>
	</g>
	<g id="g1354" transform="translate(79.215,72.8949)">
		<path id="path1356" inkscape:connector-curvature="0" class="st0" d="M252,214.7c-2.7,0-4.8,0.8-6.4,2.5c-1.6,1.7-2.6,4.1-2.9,7.4
			h17.8c0-3.2-0.8-5.7-2.3-7.4C256.7,215.5,254.7,214.7,252,214.7 M253.5,249c-6.1,0-10.9-1.8-14.3-5.3c-3.4-3.6-5.2-8.5-5.2-14.7
			c0-6.4,1.6-11.5,4.8-15.1c3.2-3.7,7.6-5.5,13.2-5.5c5.2,0,9.3,1.6,12.3,4.7c3,3.1,4.5,7.5,4.5,13v4.5h-26.2
			c0.1,3.8,1.1,6.7,3.1,8.8c1.9,2,4.7,3.1,8.2,3.1c2.3,0,4.5-0.2,6.5-0.7c2-0.4,4.1-1.2,6.4-2.2v6.8c-2,1-4.1,1.7-6.2,2.1
			C258.6,248.8,256.2,249,253.5,249"/>
	</g>
	<g id="g1358" transform="translate(82.5459,62.5247)">
		<path id="path1360" inkscape:connector-curvature="0" class="st1" d="M270.9,294.3l0,90.2l-38.6-90.2h-29.3v128h22.1l0-90.2
			l38.5,90.2h29.1v-128H270.9z"/>
	</g>
	<g id="g1362" transform="translate(126.4666,43.4225)">
		<path id="path1364" inkscape:connector-curvature="0" class="st1" d="M520.5,441.1v-128h23.8v107.2H568v20.8H520.5z"/>
	</g>
	<g id="g1366" transform="translate(104.5528,103.4313)">
		<path id="path1368" inkscape:connector-curvature="0" class="st2" d="M396-19.9h44.9L474.5-73l-65.4,6.9l-28.1-37.3l-28.1,37.3
			L287.4-73l33.3,53.1h45.2H396z"/>
	</g>
	<g id="g1370" transform="translate(90.7908,96.9576)">
		<path id="path1372" inkscape:connector-curvature="0" class="st1" d="M317.8,29.8v106.3c0,20.7,4.2,37.6,12.4,50.3
			c12.1,18.6,33.8,28.1,64.3,28.1h0.4c30.5,0,52.2-9.4,64.3-28.1c8.2-12.6,12.4-29.5,12.4-50.3V29.8h-76.9H317.8z M394.7,242.1
			c-4.9-4.9-12.5-6.1-18.2-6.7c-29.2-3.5-50.9-15.9-64.7-37c-10.6-16.2-16-37.2-16-62.2V7.9h98.9h98.8v128.2c0,25.1-5.4,46-16,62.2
			c-13.7,21.1-35.4,33.4-64.5,37C407.3,236,399.6,237.2,394.7,242.1"/>
	</g>
	<g id="g1374" transform="translate(102.315,94.8184)">
		<path id="path1376" inkscape:connector-curvature="0" class="st1" d="M383.3,46.2v25.1l61.4,13.8V60L383.3,46.2z"/>
	</g>
	<g id="g1378" transform="translate(102.315,84.294)">
		<path id="path1380" inkscape:connector-curvature="0" class="st1" d="M383.3,127.1l61.5,13.8v-25.1L383.3,102V127.1z"/>
	</g>
	<g id="g1382" transform="translate(102.315,81.2743)">
		<path id="path1384" inkscape:connector-curvature="0" class="st1" d="M383.3,150.3v25.1l61.5,13.8v-25.1L383.3,150.3z"/>
	</g>
	<g id="g1386" transform="translate(102.315,94.8181)">
		<path id="path1388" inkscape:connector-curvature="0" class="st0" d="M383.3,46.2L321.8,60v25.1l61.5-13.8V46.2z"/>
	</g>
	<g id="g1390" transform="translate(102.315,88.0464)">
		<path id="path1392" inkscape:connector-curvature="0" class="st0" d="M383.3,98.3L321.8,112v25.1l61.5-13.8V98.3z"/>
	</g>
	<g id="g1394" transform="translate(102.315,81.2769)">
		<path id="path1396" inkscape:connector-curvature="0" class="st0" d="M383.3,150.3l-61.5,13.8v25.1l61.5-13.8V150.3z"/>
	</g>
</g>
</svg>
