<?xml version="1.0" encoding="utf-8"?>
<!-- Generator: Adobe Illustrator 27.1.0, SVG Export Plug-In . SVG Version: 6.00 Build 0)  -->
<svg version="1.1" id="Layer_1" xmlns="http://www.w3.org/2000/svg" xmlns:xlink="http://www.w3.org/1999/xlink" x="0px" y="0px"
	 viewBox="0 0 455.9 160.7" style="enable-background:new 0 0 455.9 160.7;" xml:space="preserve">
<style type="text/css">
	.st0{fill:#00374F;}
	.st1{fill:#E5007D;}
	.st2{fill:#F9B000;}
	.st3{fill:#EF7A00;}
	.st4{fill:#680E42;}
	.st5{fill:#64C2C7;}
	.st6{fill:#00A379;}
	.st7{fill:#005CA9;}
	.st8{fill:#EA5057;}
</style>
<g>
	<polygon class="st0" points="196.5,113.5 196.4,113.4 228.8,60.7 228.7,60.5 198.7,60.5 198.7,50.7 247.4,50.7 247.5,50.9 
		215,103.5 215.1,103.7 246.8,103.7 246.8,113.5 	"/>
	<path class="st0" d="M277.7,96.3c-1.9-0.5-4.5-0.9-6.6-0.9c-4.3,0-8.6,1.4-8.6,5.6c0,3.5,3,5.1,6.8,5.1c3.2,0,6.3-1.1,8.4-2.6V96.3
		z M279.3,110.4c-2.6,2.1-7,4.1-12.7,4.1c-3.5,0-7-0.8-9.9-2.9c-2.9-2.2-4.8-5.6-4.8-9.8c0-4.7,2.3-8.2,5.5-10.3c3.2-2.2,7.5-3,12-3
		c2.9,0,5.6,0.3,8.2,1V87c0-2.6-0.7-4.5-2.1-5.8c-1.6-1.4-4-2.1-7.2-2.1c-5.1,0-9.5,1.7-12.8,3.8v-9.5c3.4-1.9,8.3-3.5,14.4-3.5
		c5.6,0,10.5,1.3,13.7,4c2.9,2.4,4.5,6.1,4.5,11.4v16.4c0,2.3,0.9,4,3,4c0.8,0,1.6-0.3,2.3-0.6v8.2c-1.3,0.6-3.1,1-5.2,1
		c-3.5,0-6.8-1.2-8.8-3.9H279.3z"/>
	<path class="st0" d="M302.1,79.8h-6.4v-8.9h6.4v-7.3c0-5.7,1-10.5,4.2-13.5c2.9-2.8,7.1-3.7,11-3.7c2.4,0,4.9,0.3,6.9,1v8.9
		c-1.6-0.4-4.3-0.8-5.9-0.8c-4.7,0-5.6,3.1-5.6,7.2v8.2h10.4v8.9h-10.4v33.7h-10.5V79.8z"/>
	<path class="st0" d="M360.7,70.8h10.5v42.7h-10.5V70.8z M366,50.2c3.6,0,6.5,3,6.5,6.5c0,3.6-3,6.5-6.6,6.5c-3.6,0-6.5-3-6.5-6.5
		C359.4,53.1,362.4,50.2,366,50.2 M331.9,79.8h-6.4v-8.9h6.4v-7.3c0-5.7,1-10.5,4.2-13.5c2.9-2.8,7.1-3.7,11-3.7
		c2.4,0,4.9,0.3,6.9,1v8.9c-1.6-0.4-4.3-0.8-5.9-0.8c-4.7,0-5.6,3.1-5.6,7.2v8.2h10.4v8.9h-10.4v33.7h-10.5V79.8z"/>
	<path class="st0" d="M411.5,87.8c-0.8-6.4-5.5-9.4-10.2-9.4c-4.9,0-9.7,3-11,9.4H411.5z M390.2,95c1.3,7.1,6.9,10.8,14.1,10.8
		c5.4,0,10.4-2,14.6-4.9v9.6c-4,2.5-10.1,4-15.6,4c-13.7,0-23.8-8.9-23.8-22.2c0-13.5,10.2-22.4,21.8-22.4c10.6,0,20,7.2,20,20.9
		c0,1.4-0.1,3.1-0.3,4.3H390.2z"/>
	<path class="st0" d="M430,70.8h10.4v6l0.2,0.1c3-4.2,7.4-6.5,12.4-6.5c1,0,1.9,0.1,2.9,0.3v10.1c-1-0.3-2.1-0.4-3.5-0.4
		c-4.9,0-8.9,2.2-11.9,6.3v26.8H430V70.8z"/>
	<polygon class="st1" points="60.5,153.4 1.8,143.1 7.9,108.5 	"/>
	<polygon class="st2" points="88.6,91.7 116.7,144.2 85.7,160.7 	"/>
	<polygon class="st3" points="97.1,81.3 154.4,97.2 144.9,131.1 	"/>
	<polygon class="st4" points="85.6,66.1 140.9,44.1 153.9,76.7 	"/>
	<polygon class="st5" points="76.9,55.5 102.8,1.9 134.4,17.2 	"/>
	<polygon class="st6" points="66.6,68.5 29.6,21.8 57.1,0 	"/>
	<polygon class="st7" points="59.6,77.9 0.1,78.1 0,43 	"/>
	<polygon class="st8" points="87.6,76.1 53.9,125.1 25,105.2 	"/>
</g>
</svg>
