<?xml version="1.0" encoding="utf-8"?>
<!-- Generator: Adobe Illustrator 26.4.0, SVG Export Plug-In . SVG Version: 6.00 Build 0)  -->
<svg version="1.1" id="Layer_1" xmlns="http://www.w3.org/2000/svg" xmlns:xlink="http://www.w3.org/1999/xlink" x="0px" y="0px"
	 viewBox="0 0 24 24" enable-background="new 0 0 24 24" xml:space="preserve">
<symbol  id="arrow-right" viewBox="-6.9103751 -11.9995003 13.8207502 23.9990005">
	<path d="M-5.6198745-11.7790003l-1.0700002,1.0699997c-0.2940001,0.2940006-0.2940001,0.776,0,1.0690002l9.6549997,9.6549997
		l-9.6239996,9.625c-0.2940001,0.2940006-0.2940001,0.7749996,0,1.0690002l1.0690002,1.0699997
		c0.2940001,0.2940006,0.776,0.2940006,1.0690002,0L6.6931262,0.5649999
		c0.1520004-0.1520004,0.2220001-0.3509998,0.2169991-0.5489998c0.0049992-0.198-0.0669994-0.3990002-0.2169991-0.5489998
		L-4.5518737-11.7779999C-4.8458734-12.073-5.3278737-12.073-5.6208739-11.7799997L-5.6198745-11.7790003z"/>
</symbol>
<use xlink:href="#arrow-right"  width="13.8207502" height="23.9990005" x="-6.9103751" y="-11.9995003" transform="matrix(1 0 0 1 12.8363743 11.9255009)" overflow="visible"/>
</svg>
